{"id":1, "name":"John", "surname":"Doe", "gender":"M", "age": 25, "marks": {"maths": 10, "biology": 7}}
{"id":2, "name":"Mary", "surname":"Doe", "gender":"F", "age": 18, "marks": {"maths": 4, "biology": 9}}
{"id":3, "name":"Lara", "surname":"Croft", "gender":"F", "age":25, "marks": {"maths": 5.6, "biology": 3.3}}
{"id":4, "name":"John", "surname":"Watson", "gender":"M", "age":44, "marks": {"maths": 10, "biology": 2.4} }
{"id":5, "name":"Sherlock", "surname":"Holmes", "gender":"F", "age":40, "marks": {"maths": 10, "biology": 7}}
